C:\Users\paulo\Desktop\project2-code-parent\project2-code-business\src\main\java\ejb\bean\AdminBean.java
C:\Users\paulo\Desktop\project2-code-parent\project2-code-business\src\main\java\ejb\model\LigacaoAdminBean.java
C:\Users\paulo\Desktop\project2-code-parent\project2-code-business\src\main\java\ejb\bean\UserBean.java
C:\Users\paulo\Desktop\project2-code-parent\project2-code-business\src\main\java\ejb\pagamentos\PagamentoBean.java
C:\Users\paulo\Desktop\project2-code-parent\project2-code-business\src\main\java\ejb\model\LigacaoUserBean.java
