C:\Users\paulo\Desktop\project2-code-parent\project2-code-data\src\main\java\data\Movie.java
C:\Users\paulo\Desktop\project2-code-parent\project2-code-data\src\main\java\data\TVShowEpisode.java
C:\Users\paulo\Desktop\project2-code-parent\project2-code-data\src\main\java\data\Person.java
C:\Users\paulo\Desktop\project2-code-parent\project2-code-data\src\main\java\data\TVShow.java
C:\Users\paulo\Desktop\project2-code-parent\project2-code-data\src\main\java\data\Users.java
C:\Users\paulo\Desktop\project2-code-parent\project2-code-data\src\main\java\data\Manager.java
C:\Users\paulo\Desktop\project2-code-parent\project2-code-data\src\main\java\data\User.java
C:\Users\paulo\Desktop\project2-code-parent\project2-code-data\src\main\java\data\Media.java
